…
``` r
df <- as_tibble(df)
new_df <- rename(df, President = subject, Date = modeldate, Party = party, Approve = approve_estimate, Disapprove = disapprove_estimate, Timestamp = timestamp)
```

Replacing Text Values in Party Column

``` r
new_df <- new_df %>% 
  mutate(Party = str_replace(Party, "R", "Republican"))
new_df
```

    ## # A tibble: 5,641 × 6
    ##    President Date       Party      Approve Disapprove Timestamp           
    ##    <chr>     <chr>      <chr>        <dbl>      <dbl> <chr>               
    ##  1 Biden     11/27/2022 Republican    18.6       74.3 02:31:21 27 Nov 2022
    ##  2 Biden     11/27/2022 D             80.9       12.8 02:31:11 27 Nov 2022
    ##  3 Biden     11/27/2022 I             37.5       43.8 02:31:16 27 Nov 2022
    ##  4 Biden     11/27/2022 all           47.8       41.8 02:31:28 27 Nov 2022
    ##  5 Biden     11/26/2022 D             80.9       12.8 02:31:13 27 Nov 2022
    ##  6 Biden     11/26/2022 I             37.5       43.8 02:31:18 27 Nov 2022
    ##  7 Biden     11/26/2022 Republican    18.6       74.3 02:31:23 27 Nov 2022
    ##  8 Biden     11/26/2022 all           47.8       41.8 02:31:30 27 Nov 2022
    ##  9 Biden     11/25/2022 I             37.5       43.8 02:31:20 27 Nov 2022
    ## 10 Biden     11/25/2022 Republican    18.6       74.3 02:31:25 27 Nov 2022
    ## # … with 5,631 more rows

``` r
new_df <- new_df %>% 
  mutate(Party = str_replace(Party, "D", "Democrat"))
new_df
```

    ## # A tibble: 5,641 × 6
    ##    President Date       Party      Approve Disapprove Timestamp           
    ##    <chr>     <chr>      <chr>        <dbl>      <dbl> <chr>               
    ##  1 Biden     11/27/2022 Republican    18.6       74.3 02:31:21 27 Nov 2022
    ##  2 Biden     11/27/2022 Democrat      80.9       12.8 02:31:11 27 Nov 2022
    ##  3 Biden     11/27/2022 I             37.5       43.8 02:31:16 27 Nov 2022
    ##  4 Biden     11/27/2022 all           47.8       41.8 02:31:28 27 Nov 2022
    ##  5 Biden     11/26/2022 Democrat      80.9       12.8 02:31:13 27 Nov 2022
    ##  6 Biden     11/26/2022 I             37.5       43.8 02:31:18 27 Nov 2022
    ##  7 Biden     11/26/2022 Republican    18.6       74.3 02:31:23 27 Nov 2022
    ##  8 Biden     11/26/2022 all           47.8       41.8 02:31:30 27 Nov 2022
    ##  9 Biden     11/25/2022 I             37.5       43.8 02:31:20 27 Nov 2022
    ## 10 Biden     11/25/2022 Republican    18.6       74.3 02:31:25 27 Nov 2022
    ## # … with 5,631 more rows

``` r
new_df <- new_df %>% 
  mutate(Party = str_replace(Party, "I", "Independent"))
new_df
```

    ## # A tibble: 5,641 × 6
    ##    President Date       Party       Approve Disapprove Timestamp           
    ##    <chr>     <chr>      <chr>         <dbl>      <dbl> <chr>               
    ##  1 Biden     11/27/2022 Republican     18.6       74.3 02:31:21 27 Nov 2022
    ##  2 Biden     11/27/2022 Democrat       80.9       12.8 02:31:11 27 Nov 2022
    ##  3 Biden     11/27/2022 Independent    37.5       43.8 02:31:16 27 Nov 2022
    ##  4 Biden     11/27/2022 all            47.8       41.8 02:31:28 27 Nov 2022
    ##  5 Biden     11/26/2022 Democrat       80.9       12.8 02:31:13 27 Nov 2022
    ##  6 Biden     11/26/2022 Independent    37.5       43.8 02:31:18 27 Nov 2022
    ##  7 Biden     11/26/2022 Republican     18.6       74.3 02:31:23 27 Nov 2022
    ##  8 Biden     11/26/2022 all            47.8       41.8 02:31:30 27 Nov 2022
    ##  9 Biden     11/25/2022 Independent    37.5       43.8 02:31:20 27 Nov 2022
    ## 10 Biden     11/25/2022 Republican     18.6       74.3 02:31:25 27 Nov 2022
    ## # … with 5,631 more rows

``` r
new_df <- new_df %>% 
  mutate(Party = str_replace(Party, "all", "Overall"))
new_df
```

    ## # A tibble: 5,641 × 6
    ##    President Date       Party       Approve Disapprove Timestamp           
    ##    <chr>     <chr>      <chr>         <dbl>      <dbl> <chr>               
    ##  1 Biden     11/27/2022 Republican     18.6       74.3 02:31:21 27 Nov 2022
    ##  2 Biden     11/27/2022 Democrat       80.9       12.8 02:31:11 27 Nov 2022
    ##  3 Biden     11/27/2022 Independent    37.5       43.8 02:31:16 27 Nov 2022
    ##  4 Biden     11/27/2022 Overall        47.8       41.8 02:31:28 27 Nov 2022
    ##  5 Biden     11/26/2022 Democrat       80.9       12.8 02:31:13 27 Nov 2022
    ##  6 Biden     11/26/2022 Independent    37.5       43.8 02:31:18 27 Nov 2022
    ##  7 Biden     11/26/2022 Republican     18.6       74.3 02:31:23 27 Nov 2022
    ##  8 Biden     11/26/2022 Overall        47.8       41.8 02:31:30 27 Nov 2022
    ##  9 Biden     11/25/2022 Independent    37.5       43.8 02:31:20 27 Nov 2022
    ## 10 Biden     11/25/2022 Republican     18.6       74.3 02:31:25 27 Nov 2022
    ## # … with 5,631 more rows

## Approval Ratings of President Biden’s Handling of COVID-19 Response

The following subsets of data focuses on American views of President
Biden’s response to COVID-19, parsed down by political party affiliation
and sorted in descending order by highest job approval rating:

``` r
filter(new_df, President == 'Biden' & Party == 'Republican') %>%
  arrange(desc(Approve))
```

    ## # A tibble: 667 × 6
    ##    President Date      Party      Approve Disapprove Timestamp           
    ##    <chr>     <chr>     <chr>        <dbl>      <dbl> <chr>               
    ##  1 Biden     5/11/2021 Republican    34.0       61.5 08:40:22 12 May 2021
    ##  2 Biden     5/10/2021 Republican    34.0       61.5 09:10:29 10 May 2021
    ##  3 Biden     5/9/2021  Republican    34.0       61.5 09:10:30 10 May 2021
    ##  4 Biden     5/8/2021  Republican    34.0       61.5 09:10:30 10 May 2021
    ##  5 Biden     5/12/2021 Republican    33.8       61.5 09:05:15 12 May 2021
    ##  6 Biden     5/13/2021 Republican    33.6       61.5 09:00:16 13 May 2021
    ##  7 Biden     5/16/2021 Republican    33.5       61.7 08:55:37 17 May 2021
    ##  8 Biden     5/15/2021 Republican    33.5       61.7 08:55:37 17 May 2021
    ##  9 Biden     5/14/2021 Republican    33.5       61.7 08:55:38 17 May 2021
    ## 10 Biden     6/19/2021 Republican    33.1       62.4 09:25:41 21 Jun 2021
    ## # … with 657 more rows

``` r
filter(new_df, President == 'Biden' & Party == 'Democrat') %>%
  arrange(desc(Approve))
```

    ## # A tibble: 662 × 6
    ##    President Date      Party    Approve Disapprove Timestamp           
    ##    <chr>     <chr>     <chr>      <dbl>      <dbl> <chr>               
    ##  1 Biden     3/22/2021 Democrat    92.7       5.00 09:45:07 22 Mar 2021
    ##  2 Biden     3/21/2021 Democrat    92.7       5.00 09:45:08 22 Mar 2021
    ##  3 Biden     3/20/2021 Democrat    92.7       5.00 09:45:08 22 Mar 2021
    ##  4 Biden     3/24/2021 Democrat    92.6       4.75 13:20:06 24 Mar 2021
    ##  5 Biden     3/23/2021 Democrat    92.6       4.75 10:45:07 24 Mar 2021
    ##  6 Biden     6/29/2021 Democrat    92.5       5.69 21:05:07 29 Jun 2021
    ##  7 Biden     6/28/2021 Democrat    92.5       5.69 21:05:08 29 Jun 2021
    ##  8 Biden     6/27/2021 Democrat    92.5       5.69 21:05:08 29 Jun 2021
    ##  9 Biden     6/26/2021 Democrat    92.5       5.69 21:05:08 29 Jun 2021
    ## 10 Biden     6/25/2021 Democrat    92.5       5.69 21:05:09 29 Jun 2021
    ## # … with 652 more rows

``` r
filter(new_df, President == 'Biden' & Party == 'Independent') %>%
  arrange(desc(Approve))
```

    ## # A tibble: 665 × 6
    ##    President Date      Party       Approve Disapprove Timestamp           
    ##    <chr>     <chr>     <chr>         <dbl>      <dbl> <chr>               
    ##  1 Biden     3/31/2021 Independent    60.9       32.0 19:35:12 31 Mar 2021
    ##  2 Biden     5/27/2021 Independent    60.8       32.7 07:40:17 28 May 2021
    ##  3 Biden     5/26/2021 Independent    60.8       32.7 21:20:12 26 May 2021
    ##  4 Biden     4/13/2021 Independent    60.7       31.6 09:10:11 13 Apr 2021
    ##  5 Biden     4/12/2021 Independent    60.7       31.6 10:15:13 12 Apr 2021
    ##  6 Biden     5/3/2021  Independent    60.6       32.6 10:15:24  5 May 2021
    ##  7 Biden     5/2/2021  Independent    60.6       32.6 10:15:25  5 May 2021
    ##  8 Biden     5/1/2021  Independent    60.6       32.6 20:20:10  1 May 2021
    ##  9 Biden     4/30/2021 Independent    60.6       32.6 16:55:14 30 Apr 2021
    ## 10 Biden     4/11/2021 Independent    60.5       31.7 16:35:26 11 Apr 2021
    ## # … with 655 more rows

``` r
filter(new_df, President == 'Biden' & Party == 'Overall') %>%
  arrange(desc(Approve))
```

    ## # A tibble: 671 × 6
    ##    President Date      Party   Approve Disapprove Timestamp           
    ##    <chr>     <chr>     <chr>     <dbl>      <dbl> <chr>               
    ##  1 Biden     1/25/2021 Overall    69         30.1 11:11:16  8 Feb 2021
    ##  2 Biden     1/24/2021 Overall    69         30.1 11:11:17  8 Feb 2021
    ##  3 Biden     1/23/2021 Overall    69         30.1 11:11:17  8 Feb 2021
    ##  4 Biden     1/22/2021 Overall    69         31   11:11:18  8 Feb 2021
    ##  5 Biden     5/27/2021 Overall    63.4       32.1 07:40:33 28 May 2021
    ##  6 Biden     5/26/2021 Overall    63.4       32.1 21:20:20 26 May 2021
    ##  7 Biden     5/11/2021 Overall    63.3       31.1 08:40:30 12 May 2021
    ##  8 Biden     5/16/2021 Overall    63.3       31.3 08:55:52 17 May 2021
    ##  9 Biden     5/15/2021 Overall    63.3       31.3 08:55:53 17 May 2021
    ## 10 Biden     5/14/2021 Overall    63.3       31.3 08:55:53 17 May 2021
    ## # … with 661 more rows
…
